{
    "../../Cesar": {
        "category": "PoseLibrary", 
        "name": "Cesar", 
        "__class__": "studiolibrary.folderitem.FolderItem", 
        "modified": 1569387448.103731, 
        "path": "../../Cesar", 
        "folder": "../..", 
        "type": "Folder"
    }, 
    "../../Cesar/Poses": {
        "category": "Cesar", 
        "name": "Poses", 
        "modified": 1569387456.2926123, 
        "__class__": "studiolibrary.folderitem.FolderItem", 
        "path": "../../Cesar/Poses", 
        "folder": "../../Cesar", 
        "type": "Folder"
    }, 
    "../../Cesar/Poses/SK_Mannequin_Idle.pose": {
        "category": "Poses", 
        "name": "SK_Mannequin_Idle.pose", 
        "path": "../../Cesar/Poses/SK_Mannequin_Idle.pose", 
        "folder": "../../Cesar/Poses", 
        "type": ".pose", 
        "modified": 1569387509.743724, 
        "__class__": "studiolibrarymaya.poseitem.PoseItem"
    }
}